{
  "project_info": {
    "project_number": "854688608198",
    "firebase_url": "https://fir-advanced-android-trai.firebaseio.com",
    "project_id": "firebase-advanced-android-trai",
    "storage_bucket": "firebase-advanced-android-trai.appspot.com"
  },
  "client": [
    {
      "client_info": {
        "mobilesdk_app_id": "1:854688608198:android:81d6ea4286779def",
        "android_client_info": {
          "package_name": "co.makery.training"
        }
      },
      "oauth_client": [
        {
          "client_id": "854688608198-66cdd2ke11mdrp0cp3urbl8ngbkbjr54.apps.googleusercontent.com",
          "client_type": 3
        },
        {
          "client_id": "854688608198-mcojilvgcgg66dpslrgg0klq7oep7stl.apps.googleusercontent.com",
          "client_type": 3
        }
      ],
      "api_key": [
        {
          "current_key": "AIzaSyAdfK-vRNnVuVSJ-7L93DS4OoIWojsxh3Y"
        }
      ],
      "services": {
        "analytics_service": {
          "status": 2,
          "analytics_property": {
            "tracking_id": "UA-88299583-2"
          }
        },
        "appinvite_service": {
          "status": 1,
          "other_platform_oauth_client": []
        },
        "ads_service": {
          "status": 2
        }
      }
    }
  ],
  "configuration_version": "1"
}